%YAML 1.1
%TAG !u! tag:unity3d.com,2011:
--- !u!1045 &1
EditorBuildSettings:
  m_ObjectHideFlags: 0
  serializedVersion: 2
  m_Scenes:
  - enabled: 1
    path: Assets/Off-Road Truck Template/Scenes/Garage.unity
    guid: e17bcbad242fe3446ba83a8a5056cce1
  - enabled: 1
    path: Assets/Off-Road Truck Template/Scenes/Off-Road_Day.unity
    guid: bb4930434bd0ed0488e0baae0270026f
  - enabled: 1
    path: Assets/Off-Road Truck Template/Scenes/Off-Road_Night.unity
    guid: f84bcbeea93e6c14e851b2950758e207
  - enabled: 1
    path: Assets/Off-Road Truck Template/Scenes/UnityAds.unity
    guid: 5596a0967dde6e743a64e5b6f009ee5d
  m_configObjects: {}
